09dataScientistClass
…
as_tibble(nminer)

## # A tibble: 31 x 10
##    Miners  Eucs  Area Grazed Shrubs Bulokes Timber Minerab     Prob MinersPred
##     <int> <int> <int>  <int>  <int>   <int>  <int>   <int>    <dbl>      <dbl>
##  1      0     2    22      0      1     120     16       0 0.000318          0
##  2      0    10    11      0      1      67     25       0 0.0214            0
##  3      1    16    51      0      1      85     13       3 0.958             1
##  4      1    20    22      0      1      45     12       2 0.998             1
##  5      1    19     4      0      1     160     14       8 0.994             1
##  6      1    18    61      0      1      75      6       1 0.998             1
##  7      1    12    16      0      1     100     12       8 0.574             1
##  8      1    16    14      0      1     321     15       5 0.938             1
##  9      0     3     5      0      1     275      8       0 0.00337           0
## 10      1    12     6      1      0     227     10       4 0.999             1
## #  with 21 more rows
…
tables

cross citations

references

output from multiple files for big projects (like your thesis)

2.1.1 Figures

airq <- as_tibble(airquality)
airq

## # A tibble: 153 x 6
##    Ozone Solar.R  Wind  Temp Month   Day
##    <int>   <int> <dbl> <int> <int> <int>
##  1    41     190   7.4    67     5     1
##  2    36     118   8      72     5     2
##  3    12     149  12.6    74     5     3
##  4    18     313  11.5    62     5     4
##  5    NA      NA  14.3    56     5     5
##  6    28      NA  14.9    66     5     6
##  7    23     299   8.6    65     5     7
##  8    19      99  13.8    59     5     8
##  9     8      19  20.1    61     5     9
## 10    NA     194   8.6    69     5    10
## #  with 143 more rows
…
